// Jest Snapshot v1, https://goo.gl/fbAQLP

exports[`renders correctly across screens 1`] = `
<View
  style={
    Array [
      Object {
        "justifyConten": "center",
        "marginTop": 8,
      },
    ]
  }
/>
`;
