// Jest Snapshot v1, https://goo.gl/fbAQLP

exports[`renders correctly across screens 1`] = `
<Text
  style={
    Array [
      Object {
        "color": "#262626",
        "fontFamily": "Oswald_400Regular",
        "fontSize": 12,
      },
    ]
  }
/>
`;
